{
	"nodes":[
		{"name":"1_1", "group" : 1, "id":"0"},
		{"name":"1_6", "group" : 1, "id":"1"},
		{"name":"1_12", "group" : 1, "id":"2"},
		{"name":"1_15", "group" : 1, "id":"3"},
		{"name":"1_21", "group" : 1, "id":"4"},
		{"name":"1_26", "group" : 1, "id":"5"},
		{"name":"5_1", "group" : 1, "id":"6"},
		{"name":"5_6", "group" : 1, "id":"7"},
		{"name":"5_9", "group" : 1, "id":"8"},
		{"name":"5_12", "group" : 1, "id":"9"},
		{"name":"5_15", "group" : 1, "id":"10"},
		{"name":"5_18", "group" : 1, "id":"11"},
		{"name":"5_21", "group" : 1, "id":"12"},
		{"name":"5_26", "group" : 1, "id":"13"},
		{"name":"8_1", "group" : 1, "id":"14"},
		{"name":"8_6", "group" : 1, "id":"15"},
		{"name":"8_9", "group" : 1, "id":"16"},
		{"name":"8_12", "group" : 1, "id":"17"},
		{"name":"8_15", "group" : 1, "id":"18"},
		{"name":"8_18", "group" : 1, "id":"19"},
		{"name":"8_21", "group" : 1, "id":"20"},
		{"name":"8_26", "group" : 1, "id":"21"},
		{"name":"11_9", "group" : 1, "id":"22"},
		{"name":"11_12", "group" : 1, "id":"23"},
		{"name":"11_15", "group" : 1, "id":"24"},
		{"name":"11_18", "group" : 1, "id":"25"},
		{"name":"14_6", "group" : 1, "id":"26"},
		{"name":"14_9", "group" : 1, "id":"27"},
		{"name":"14_18", "group" : 1, "id":"28"},
		{"name":"14_21", "group" : 1, "id":"29"},
		{"name":"17_9", "group" : 1, "id":"30"},
		{"name":"17_18", "group" : 1, "id":"31"},
		{"name":"20_1", "group" : 1, "id":"32"},
		{"name":"20_6", "group" : 1, "id":"33"},
		{"name":"20_9", "group" : 1, "id":"34"},
		{"name":"20_12", "group" : 1, "id":"35"},
		{"name":"20_15", "group" : 1, "id":"36"},
		{"name":"20_18", "group" : 1, "id":"37"},
		{"name":"20_21", "group" : 1, "id":"38"},
		{"name":"20_26", "group" : 1, "id":"39"},
		{"name":"23_1", "group" : 1, "id":"40"},
		{"name":"23_3", "group" : 1, "id":"41"},
		{"name":"23_6", "group" : 1, "id":"42"},
		{"name":"23_9", "group" : 1, "id":"43"},
		{"name":"23_12", "group" : 1, "id":"44"},
		{"name":"23_15", "group" : 1, "id":"45"},
		{"name":"23_18", "group" : 1, "id":"46"},
		{"name":"23_21", "group" : 1, "id":"47"},
		{"name":"23_24", "group" : 1, "id":"48"},
		{"name":"23_26", "group" : 1, "id":"49"},
		{"name":"26_1", "group" : 1, "id":"50"},
		{"name":"26_3", "group" : 1, "id":"51"},
		{"name":"26_6", "group" : 1, "id":"52"},
		{"name":"26_9", "group" : 1, "id":"53"},
		{"name":"26_12", "group" : 1, "id":"54"},
		{"name":"26_15", "group" : 1, "id":"55"},
		{"name":"26_18", "group" : 1, "id":"56"},
		{"name":"26_21", "group" : 1, "id":"57"},
		{"name":"26_24", "group" : 1, "id":"58"},
		{"name":"26_26", "group" : 1, "id":"59"},
		{"name":"29_1", "group" : 1, "id":"60"},
		{"name":"29_12", "group" : 1, "id":"61"},
		{"name":"29_15", "group" : 1, "id":"62"},
		{"name":"29_26", "group" : 1, "id":"63"}
	],
	"links":[
		{"source":0,"target":1,"value":4},
		{"source":0,"target":6,"value":3},
		{"source":1,"target":2,"value":5},
		{"source":1,"target":7,"value":3},
		{"source":2,"target":9,"value":3},
		{"source":3,"target":4,"value":5},
		{"source":4,"target":5,"value":4},
		{"source":6,"target":7,"value":4},
		{"source":6,"target":14,"value":2},
		{"source":7,"target":8,"value":2},
		{"source":8,"target":9,"value":2},
		{"source":9,"target":10,"value":2},
		{"source":10,"target":3,"value":3},
		{"source":10,"target":11,"value":2},
		{"source":11,"target":12,"value":2},
		{"source":12,"target":13,"value":4},
		{"source":12,"target":4,"value":3},
		{"source":13,"target":5,"value":3},
		{"source":14,"target":15,"value":4},
		{"source":15,"target":7,"value":2},
		{"source":15,"target":26,"value":5},

		{"source":16,"target":8,"value":2},
		{"source":16,"target":17,"value":2},

		{"source":17,"target":23,"value":2},
		{"source":18,"target":24,"value":2},

		{"source":18,"target":19,"value":2},
		{"source":19,"target":11,"value":2},
		{"source":19,"target":11,"value":2},
		{"source":20,"target":21,"value":4},
		{"source":20,"target":12,"value":2},

		{"source":20,"target":29,"value":5},

		{"source":21,"target":13,"value":2},

		{"source":22,"target":23,"value":2},

		{"source":23,"target":24,"value":2},
		{"source":24,"target":25,"value":2},
		{"source":25,"target":28,"value":2},
		{"source":26,"target":27,"value":2},
		{"source":26,"target":33,"value":5},

		
		{"source":27,"target":22,"value":2},

		{"source":27,"target":30,"value":2},

		{"source":28,"target":29,"value":2},
		{"source":28,"target":31,"value":2},

		{"source":29,"target":38,"value":5},

		{"source":30,"target":31,"value":8},
		{"source":30,"target":34,"value":2},

		{"source":31,"target":37,"value":2},
		{"source":32,"target":33,"value":4},

		{"source":32,"target":40,"value":2},

		{"source":33,"target":34,"value":2},
		{"source":33,"target":42,"value":2},
		{"source":34,"target":35,"value":2},

		{"source":35,"target":44,"value":2},

		{"source":36,"target":37,"value":2},
		{"source":36,"target":45,"value":2},
		{"source":37,"target":38,"value":2},
		{"source":38,"target":39,"value":4},
		{"source":38,"target":47,"value":2},
		{"source":39,"target":49,"value":2},

		{"source":40,"target":41,"value":1},


		{"source":41,"target":51,"value":2},
		{"source":42,"target":43,"value":2},
		{"source":42,"target":52,"value":2},


		
		
		{"source":43,"target":44,"value":2},
		{"source":43,"target":53,"value":2},
		{"source":44,"target":35,"value":2},
		{"source":44,"target":45,"value":2},
		{"source":45,"target":46,"value":2},
		{"source":46,"target":47,"value":2},
		{"source":46,"target":56,"value":2},
		{"source":47,"target":57,"value":2},
		{"source":48,"target":49,"value":1},
		{"source":48,"target":58,"value":2},
		
		{"source":50,"target":51,"value":2},
		{"source":50,"target":60,"value":2},
		{"source":51,"target":52,"value":2},

		{"source":53,"target":54,"value":2},
		{"source":54,"target":61,"value":2},

		{"source":55,"target":56,"value":2},
		{"source":55,"target":62,"value":2},

		{"source":57,"target":58,"value":2},
		{"source":58,"target":59,"value":1},
		{"source":59,"target":63,"value":2},

		{"source":60,"target":61,"value":10},
		{"source":61,"target":62,"value":2},
		{"source":62,"target":63,"value":10}
	]
}